Demanda_Estoque.utf8
…
# Estado de  Mexico, Jalisco  e Mexico.DF so os Estados que mais geram vendas e lucros. 
train2 %>%
  select(State, Venta_uni_hoy, Venta_hoy,Dev_uni_proxima,Dev_proxima)%>%
  group_by(State)%>%
  summarise(Total_Unidades = sum(Venta_uni_hoy),
            Total_Lucro = sum(Venta_hoy),
            Total_Unidades_Devolvidas = sum(Dev_uni_proxima),
            Total_Devoluo = sum(Dev_proxima))

## `summarise()` ungrouping output (override with `.groups` argument)

## # A tibble: 33 x 5
##    State         Total_Unidades Total_Lucro Total_Unidades_Devo~ Total_Devoluo
##    <chr>                  <dbl>       <dbl>                <dbl>           <dbl>
##  1 AGUASCALIENT~          15544     128697.                  271           2603.
##  2 BAJA_CALIFOR~          24788     260012.                  598           5072.
##  3 BAJA_CALIFOR~           5989      75042.                   68            772.
##  4 CAMPECHE                6889      71338.                   58            708.
##  5 CHIAPAS                13369     142756.                  370           3188.
##  6 CHIHUAHUA              25225     261868.                  500           5319.
##  7 COAHUILA               22257     217587.                  438           4264.
##  8 COLIMA                  8314      81994.                  207           2500.
##  9 DURANGO                10681      87004.                   90            918.
## 10 ESTADO_DE_M~         112428    1039019.                 1484          16614.
## # ... with 23 more rows
…
